<?xml version="1.0" encoding="UTF-8"?>
<testng-results skipped="0" failed="0" total="0" passed="0">
  <reporter-output>
  </reporter-output>
  <suite name="com.InsiderDemo.Init.TestData" duration-ms="2" started-at="2017-08-31T11:10:31Z" finished-at="2017-08-31T11:10:31Z">
    <groups>
    </groups>
    <test name="Command line test" duration-ms="2" started-at="2017-08-31T11:10:31Z" finished-at="2017-08-31T11:10:31Z">
    </test> <!-- Command line test -->
  </suite> <!-- com.InsiderDemo.Init.TestData -->
</testng-results>
