com\InsiderDemo\Init\Common$1.class
com\InsiderDemo\Init\ITestStatus.class
com\InsiderDemo\Init\Common.class
com\InsiderDemo\Init\ILoggerStatus.class
com\InsiderDemo\Init\TestData.class
com\InsiderDemo\Pages\AbstractPage.class
com\InsiderDemo\IndexPages\DemoIndexPage.class
com\InsiderDemo\Init\SeleniumInit.class
com\InsiderDemo\verifications\DemoIndex.class
com\InsiderDemo\Pages\NewNotePage.class
com\InsiderDemo\Init\Verify.class
